<?xml version="1.0" encoding="utf-8"?>
<!-- Generator: Adobe Illustrator 25.2.1, SVG Export Plug-In . SVG Version: 6.00 Build 0)  -->
<svg version="1.1" id="Ebene_1" xmlns="http://www.w3.org/2000/svg" xmlns:xlink="http://www.w3.org/1999/xlink" x="0px" y="0px"
	 viewBox="0 0 25 25" style="enable-background:new 0 0 25 25;" xml:space="preserve">
<style type="text/css">
	.st0{fill:#FFFFFF;}
	.st1{fill:#2E2A79;}
	.st2{fill:#E97C2F;}
</style>
<g>
	<circle class="st0" cx="12.5" cy="12.5" r="12.5"/>
	<g>
		<circle class="st1" cx="12.5" cy="12.5" r="11"/>
		<path class="st0" d="M21.8,6.7c-0.6-0.9-1.2-1.7-2-2.4l-4.3,3.6v-6c-1-0.3-2-0.4-3-0.4c-1.1,0-2.1,0.2-3.1,0.4v5.9L5.1,4.3
			C4.4,5,3.7,5.8,3.1,6.7l3.2,2.7H1.9c-0.3,1-0.4,2-0.4,3.1s0.2,2.1,0.4,3h4.4l-3.2,2.7c0.6,0.9,1.2,1.7,2,2.4L9.4,17v6
			c1,0.3,2,0.4,3.1,0.4c1,0,2.1-0.1,3-0.4v-6l4.3,3.6c0.8-0.7,1.5-1.5,2-2.4l-3.3-2.7H23c0.3-1,0.4-2,0.4-3c0-1.1-0.2-2.1-0.4-3.1
			h-4.5L21.8,6.7z"/>
		<path class="st2" d="M14.3,1.6c-0.6-0.1-1.2-0.1-1.8-0.1s-1.3,0.1-1.9,0.2v9h-9c-0.1,0.6-0.2,1.2-0.2,1.8s0.1,1.2,0.2,1.8h9v9
			c0.6,0.1,1.2,0.2,1.9,0.2c0.6,0,1.2-0.1,1.8-0.1v-9h9.1c0.1-0.6,0.2-1.2,0.2-1.8s-0.1-1.2-0.2-1.8h-9.1
			C14.3,10.8,14.3,1.6,14.3,1.6z"/>
		<path class="st2" d="M20.2,4.7l-4.7,3.9v0.9h0.6l4.8-4C20.7,5.2,20.5,4.9,20.2,4.7z"/>
		<path class="st2" d="M3.4,6.3l3.8,3.1h1.6L4,5.5C3.8,5.7,3.6,6,3.4,6.3z"/>
		<path class="st2" d="M21.6,18.7l-3.8-3.2h-1.6l4.8,4C21.2,19.3,21.4,19,21.6,18.7z"/>
		<path class="st2" d="M4,19.5c0.2,0.3,0.5,0.5,0.7,0.8l4.7-3.9v-0.9H8.8L4,19.5z"/>
	</g>
</g>
</svg>
